…
*To prevent NA values from appearing in a plot from the beginning, you
can use a couple functions to exclude them from the data in the first
place. For example: the na.omit() function or !is.na when filtering,
like below:*

``` r
flights |>
  filter(!is.na(arr_time), 
  !is.na(dep_time)) 
```

    # A tibble: 328,063 × 19
        year month   day dep_time sched_dep_time dep_delay arr_time sched_arr_time
       <int> <int> <int>    <int>          <int>     <dbl>    <int>          <int>
     1  2013     1     1      517            515         2      830            819
     2  2013     1     1      533            529         4      850            830
     3  2013     1     1      542            540         2      923            850
     4  2013     1     1      544            545        -1     1004           1022
     5  2013     1     1      554            600        -6      812            837
     6  2013     1     1      554            558        -4      740            728
     7  2013     1     1      555            600        -5      913            854
     8  2013     1     1      557            600        -3      709            723
     9  2013     1     1      557            600        -3      838            846
    10  2013     1     1      558            600        -2      753            745
    # ℹ 328,053 more rows
    # ℹ 11 more variables: arr_delay <dbl>, carrier <chr>, flight <int>,
    #   tailnum <chr>, origin <chr>, dest <chr>, air_time <dbl>, distance <dbl>,
    #   hour <dbl>, minute <dbl>, time_hour <dttm>
…
